Starting weekly assessment for Emma, Week4

Current Marks = 100

Note that: 
(1) Major sections begin with a double "====" line 
(2) Subsections begin with a single "====" line 
(3) Code output or text file content are printed within single "*****" lines 

======================================================================
======================================================================
Your Git repo size this week is about 3.34 MiB on disk 

PART 1: Checking project workflow...

Found the following directories in parent directory: Week1, Assessment, Week2, Week4, .git, Week3

Found the following files in parent directory: README.txt, .gitignore

Checking for key files in parent directory...

Found .gitignore in parent directory, great! 

Printing contents of .gitignore:
**********************************************************************
*~
*.tmp
*.pyc
*.bbl
*.blg
*.RData
*.RHistory

**********************************************************************

Found README in parent directory, named: README.txt

Printing contents of README.txt:
**********************************************************************
My CMEE 2016-17 Coursework Repository
Do I like this better?
**********************************************************************

======================================================================
Looking for the weekly directories...

Found 4 weekly directories: Week1, Week2, Week3, Week4

The Week4 directory will be assessed 

======================================================================
======================================================================
PART 2: Checking weekly code and workflow...

======================================================================
Assessing WEEK4...

Found the following directories: Code, Data

Found the following files: .Rhistory, readme.txt

Checking for readme file in weekly directory...

Found README in parent directory, named: readme.txt

Printing contents of readme.txt:
**********************************************************************
readme for Week4 Directory

├── Code
│   ├── Day1_H01.R - This script tries out basic commands with the calculator, assigning variables, and making vectors.
│   ├── Day1_H02.R - This script explores a data set by plotting histograms and calculating mean, median, mode, sum of squares,variance, and standard deviation for the sparrow data. Also introduces how to deal with NA values, including subsetting. Some work with z scores, distributions, and quantiles.
│   ├── Day1_L4.R - This script works with the calculations used for standard error
│   ├── Day2_L5.R - This script works with the calculations used for t.tests and their interpretation
│   ├── Day3_H10.R - This script is used to practice using linear models to describe relationships including using diagnostics to test for normal distribution of residuals.
│   ├── Day3_H13.R - This script includes the practice for fitting linear models 
│   ├── Day3_L09.R - Exploring our first basic linear model
│   ├── Day4_H14.R - This script is used to run repeatability calculations on bird wing length and mass by ID.
│   ├── Day4_H16.R - This script is the full 11 steps for running mixed models and multiple regressions
│   ├── Day4_H17.R - This script runs through the calculations for a chi square test as well as the shorthand function. 
│   └── Day4_H18.R - This script is runs through the calculations for a chi square test as well as the shorthand function.
├── Data
│   ├── daphnia.txt - Data set for practice with mixed models
│   ├── ipomopsis.txt - Part of an exercise that required us to go through the 11 steps to analyze data create multiple regression
│   ├── ObserverRepeatability.txt - Data set for testing the repeatability of our measures of sparrow leg
│   ├── SparrowSize.txt - The main data set from Dr. Schroeder's project which we used for nearly all the handouts
│   └── timber.txt - First practice set for multiple regression
└── Results
**********************************************************************

Results directory missing!

Found 11 code files: Day1_H01.R, Day3_H10.R, Day3_L09.R, Day1_H02.R, Day3_H13.R, Day4_H17.R, Day4_H18.R, Day4_H14.R, Day4_H16.R, Day2_L05.R, Day1_L04.R

======================================================================
Testing script/code files...

======================================================================
Inspecting script file Day1_H01.R...

File contents are:
**********************************************************************
#FileName: Day1_H01.R
#Author: "Emma Fox (e.fox16@imperial.ac.uk)"

#This script tries out basic commands with the calculator, assigning variables, and making vectors.

##########  HO1 ##########
#Check directory
#Set the one we want
#Make sure it's gone through
getwd()
#setwd("H:/cmee13/Documents/SparrowStats")
#getwd()

#Trying out basic calculator commands
2*2+1 #5
2*(2+1) #6
12/2^3 #1.5
(12/2)^3 #216

#Assigning values to variables
x<-5
x

y<-2
y

x2 <- x^2
x2
x

a <- x2 + x
a

y2 <- y^2
z2 <- x2 + y2
z <- sqrt(z2)
print(z)

#Logical Tests
3>2 #True
3 >= 3 #True
4<2 #False

#Creating Vectors
myNumericVector <- c(1.3, 2.5, 1.9, 3.4, 5.6, 1.4, 3.1, 2.9)
myCharacterVector <- c("low", "low", "low", "low", "high", "high", "high", "high")
myLogicalVector <- c(TRUE, TRUE, FALSE, FALSE, TRUE, TRUE, FALSE, FALSE)

#Shows the type of vector it is
str(myNumericVector)
str(myCharacterVector)
str(myLogicalVector)

#Mixed vectors will be converted to the simplest value type among them
myMixedVector <- c(1, TRUE, FALSE, 3, "help", 1.2, TRUE, "notwhatiplanned")
str(myMixedVector)

#install.packages("lme4")
library(lme4)
require(lme4)
#Also for if and only if necessary
#Require will put out a logical argument (T/F) based on whether it's there or not
#Require will fail without giving you an error, library will
#Require checks if it's there first whereas library reloads every time

help(getwd)
help(log)

#Special Notations

#square root
sqrt(4) #2
#raising to a power
4^0.5 #2
#Practicing with logs
log(0) #-inf
log(1) #0
log(10) #2.3-2585
log(Inf) #Inf

#Practicing with special values
exp(1) #2.718282
pi #3.14...

#Clear environment
rm(list = ls())

#Bringing in a data set
d <- read.table("../Data/SparrowSize.txt", header = TRUE)
str(d)
**********************************************************************

Testing Day1_H01.R...

Output (only first 500 characters): 

**********************************************************************
[1] "/home/mhasoba/Documents/Teaching/IC_CMEE/2016-17/Assessment/StudentRepos/EmmaFox_EAF16/Week4/Code"
[1] 5
[1] 6
[1] 1.5
[1] 216
[1] 5
[1] 2
[1] 25
[1] 5
[1] 30
[1] 5.385165
[1] TRUE
[1] TRUE
[1] FALSE
 num [1:8] 1.3 2.5 1.9 3.4 5.6 1.4 3.1 2.9
 chr [1:8] "low" "low" "low" "low" "high" "high" "high" ...
 logi [1:8] TRUE TRUE FALSE FALSE TRUE TRUE ...
 chr [1:8] "1" "TRUE" "FALSE" "3" "help" "1.2" "TRUE" ...

**********************************************************************

Encountered error:
Error in library(lme4) : there is no package called ‘lme4’
Execution halted

======================================================================
Inspecting script file Day3_H10.R...

File contents are:
**********************************************************************
#FileName: Day3_H10.R
#Author: "Emma Fox (e.fox16@imperial.ac.uk)"

#This script is used to practice using linear models to describe relationships
#including using diagnostics to test for normal distribution of residuals.

##########  H10 ##########

rm(list = ls())

d<-read.table("../Data/SparrowSize.txt", header = TRUE)

#Plotting mass vs tarsus
plot(d$Mass~d$Tarsus, ylab = "Mass (g)", xlab = "Tarsus (mm)", pch=19, cex=0.4 )

#Plotting a simple linear relationship
x<-c(1:100)
b<-0.5
m<-1.5
y<-m*x+b
plot(x,y, xlim = c(0,100), ylim = c(0,100), pch=19, cex=0.5)

#Working with the linear model equation
#y1 is...
d$Mass[1]
#max i is...
length(d$Mass)
#max yi is...
d$Mass[1770]
#Checking out the plot to estimate the equation:
plot(d$Mass~d$Tarsus, ylab = "Mass (g)", xlab = "Tarsus (mm)", pch=19, cex=0.4,
     ylim=c(-5,38), xlim=c(0,22))

#Using the least squares method to find epsilon and the full equation of the line
#making a subset with no NA for either
d1<-subset(d, d$Mass!="NA")
d2<-subset(d1, d1$Tarsus!="NA")
length(d2$Tarsus)
#model
model1<-lm(Mass~Tarsus, data = d2)
print(summary(model1))
#looking at the residuals
hist(model1$residuals)
head(model1$residuals)

#visualizing a perfect R^2 of 1
model2<-lm(y~x)
print(summary(model2))

#Z standardizing the data
d2$z.Tarsus <- scale(d2$Tarsus)
model3<-lm(Mass~z.Tarsus, data = d2)
print(summary(model3))

#Interpreting the intercept and slope after standardization

plot(d2$Mass~d2$z.Tarsus, pch=19, cex=0.4)
abline(v=0, lty="dotted")

head(d)
str(d)

#Interpreting the intercept and slope with categorical variable
#Intercept is the average of the group with the lowest average
#Slope is the difference between the two
d$Sex<-as.numeric(d$Sex)
par(mfrow = c(1,2))
plot(d$Wing~d$Sex.1, ylab = "Wing(mm)")
plot(d$Wing~d$Sex, xlab="Sex", xlim=c(-0.1,1.1), ylab = "")
abline(lm(d$Wing~d$Sex), lwd=2)
text(0.15, 76, "intercept")
text(0.9, 77.5, "slope", col = "red")

#Using t-tests to test for linear models
d4<-subset(d, d$Wing!="NA")
m4<-lm(Wing~Sex, data = d4)
t4<-t.test(d4$Wing~d4$Sex, var.equal=TRUE)
print(summary(m4))
print(t4)
#will test the slope is different from 0 which means that the two means are significantly different

#DIAGNOSTICS
#are residuals normally distributed?
par(mfrow=c(2,2))
plot(model3)

#top left shows and even spread within each group
#bottom left shows leverage
par(mfrow=c(2,2))
plot(m4)

#~~~~~~~~~~~~~~~~~~~~~~~~~~~~~~~~~~~~~~~~~~~~~~~~~~~~~~~~~~~~~~~~~~~~~~~~~~~~~~~~~~~~~~~~~~~~~~~~~~~~~~~~~~~~~~~#
#EXCERCISES

#1) Run and interpret diagnostics for a model with sex as the explanatory variable
e.d1<-subset(d, d$Sex!="NA")
e.d2<-subset(e.d1, d$Bill!="NA")
e.d2$Sex<-as.numeric(e.d2$Sex)
e.model1<-lm(Bill~Sex, data = e.d2)
par(mfrow=c(2,2))
plot(e.model1)
#Even spread within each group. None of the points are exerting skewing leverage.
#The q-q plot shows the normal distribution of residuals across quantiles

#2)Run a linear model testing the hypothesis that sparrows with bigger bills can eat more
#creating subsets and finding sample size
e.d3<-subset(d, d$Mass!="NA")
e.d4<-subset(e.d3, e.d3$Bill!="NA")
length(e.d4$Mass) #1111 observations

e.d4.f<-subset(e.d4, e.d4$Sex.1=="female")
length(e.d4.f$Mass) #563 females

e.d4.m<-subset(e.d4, e.d4$Sex.1=="male")
length(e.d4.m$Mass) #548 males

#do sexes respond differently?
e.d4$Sex<-as.numeric(e.d4$Sex)
e.model2.mf<-lm(Mass~Sex, data = e.d4)
par(mfrow=c(2,2))
plot(e.model2.mf)
#males and females dont respond differently

#Linear model
e.model2<-lm(Mass~Bill, data = e.d4)
print(summary(e.model2))
#The effect of bill size on sparrow mass is significant

#z standardizing
e.d4$z.Bill <- scale(e.d4$Bill)
model3<-lm(Mass~z.Bill, data = e.d4)
print(summary(model3))
**********************************************************************

Testing Day3_H10.R...

Output (only first 500 characters): 

**********************************************************************
[1] 23.6
[1] 1770
[1] 33
[1] 1644

Call:
lm(formula = Mass ~ Tarsus, data = d2)

Residuals:
    Min      1Q  Median      3Q     Max 
-7.7271 -1.2202 -0.1302  1.1592  7.5036 

Coefficients:
            Estimate Std. Error t value Pr(>|t|)    
(Intercept)  5.83246    0.98195    5.94 3.48e-09 ***
Tarsus       1.18466    0.05295   22.37  < 2e-16 ***
---
Signif. codes:  0 ‘***’ 0.001 ‘**’ 0.01 ‘*’ 0.05 ‘.’ 0.1 ‘ ’ 1

Residual standard error: 1.841 on 1642 degrees of freedom
Multipl
**********************************************************************

Encountered error:
Warning message:
In summary.lm(model2) : essentially perfect fit: summary may be unreliable

======================================================================
Inspecting script file Day3_L09.R...

File contents are:
**********************************************************************
#FileName: Day3_L09.R
#Author: "Emma Fox (e.fox16@imperial.ac.uk)"

#Exploring our first basic linear model

##########  L09 ##########

#Clear work space
rm(list = ls())

#RUNNING OUR FIRST LINEAR REGRESSION
#Create x and y vectors
x <- c(1, 2, 3, 4, 8) 
y <- c(4, 3, 5, 7, 9) 

#Making the model
model1 <- (lm(y~x))

#Gives the equation of the model
print(model1)

#Gives the linear model equation including the residuals
#and standard error, t values, and p values
print(summary(model1))

#Tests whether the model explains a significant amount of variance
#Can calculate the amount of variance explained
print(anova(model1))

#Gives the residuals of each point
print(resid(model1))

#Gives the covariance of x and y
print(cov(x,y))

#Gives the variance of x
print(var(x))

#Plots the data
plot(y~x)
**********************************************************************

Testing Day3_L09.R...

Output (only first 500 characters): 

**********************************************************************

Call:
lm(formula = y ~ x)

Coefficients:
(Intercept)            x  
     2.6164       0.8288  


Call:
lm(formula = y ~ x)

Residuals:
      1       2       3       4       5 
 0.5548 -1.2740 -0.1027  1.0685 -0.2466 

Coefficients:
            Estimate Std. Error t value Pr(>|t|)  
(Intercept)   2.6164     0.8214   3.185   0.0499 *
x             0.8288     0.1894   4.375   0.0221 *
---
Signif. codes:  0 ‘***’ 0.001 ‘**’ 0.01 ‘*’ 0.05 ‘.’ 0.1 ‘ ’ 1

Residual standard error: 1.
**********************************************************************

Code ran without errors

Time consumed = 0.12848s

======================================================================
Inspecting script file Day1_H02.R...

File contents are:
**********************************************************************
#FileName: Day1_H02.R
#Author: "Emma Fox (e.fox16@imperial.ac.uk)"

#This script explores a data set by plotting histograms and calculating mean, median, mode, sum of squares,
#variance, and standard deviation for the sparrow data. Also introduces how to deal with NA values, including subsetting. 
#Some work with z scores, distributions, and quantiles. 
##########  H02 ##########

#Clear environment
rm(list = ls())

#setwd("/home/cmee13/Documents/SparrowStats/")

#Bringing in a data set
d <- read.table("../Data/SparrowSize.txt", header = TRUE)
str(d)
names(d)
head(d)

#Checking the distribution
length(d$Tarsus) #1770

#Histogram
hist(d$Tarsus)

#mean
mean(d$Tarsus) 
help(mean)
#Strips NAs before calculation
mean(d$Tarsus, na.rm = TRUE)
#Median
median(d$Tarsus, na.rm = TRUE)
#Mode
mode(d$Tarsus)

#Histogram Set
#will get gaps where the precision is too great
#compared to what you have 
#make sure you're using a sensible amount of decimal places
par(mfrow = c(2,2))
hist(d$Tarsus, breaks = 3, col="grey")
hist(d$Tarsus, breaks = 10, col="grey")
hist(d$Tarsus, breaks = 30, col="grey")
hist(d$Tarsus, breaks = 100, col="grey")

#Trying to find the mode
#install.packages("modeest")
require(modeest)
?modeest
?mlv
#mlv(d$Tarsus)
#Will give an error since there are missing values

#Subsetting so we don't have NAs
d2<-subset(d, d$Tarsus!="NA")
length(d$Tarsus) #1770 (number of observations)
length(d2$Tarsus) #1685

mlv(d2$Tarsus)
#these error messages make sense so far so we ignore
#continuous values in R are hard to find a most repeated value for

#Summary statistics with NA removed
mean(d$Tarsus, na.rm = TRUE) #18.52335
median(d$Tarsus, na.rm = TRUE) #18.6
mlv(d2$Tarsus)

#Range, variance, and standard deviation
#Comparing between full set and subset with na.rm
range(d$Tarsus, na.rm = TRUE)
range(d2$Tarsus, na.rm = TRUE)
var(d$Tarsus, na.rm = TRUE)
var(d2$Tarsus, na.rm = TRUE)

#Long hand variance
#Actual formula calculations
sum((d2$Tarsus - mean(d2$Tarsus))^2)/(length(d2$Tarsus)-1)
sqrt(var(d2$Tarsus))
sd(d2$Tarsus)

#LECTURE EXERCISE
#Tarsus
mean(d$Tarsus, na.rm = TRUE)
var(d$Tarsus, na.rm = TRUE)
sd(d$Tarsus, na.rm = TRUE)
#Bill Length
mean(d$Bill, na.rm = TRUE)
var(d$Bill, na.rm = TRUE)
sd(d$Bill, na.rm = TRUE)
#Body Mass
mean(d$Mass, na.rm = TRUE)
var(d$Mass, na.rm = TRUE)
sd(d$Mass, na.rm = TRUE)
#Wing Length
mean(d$Wing, na.rm = TRUE)
var(d$Wing, na.rm = TRUE)
sd(d$Wing, na.rm = TRUE)
#Graph
par(mfrow = c(2,2))
hist(d$Tarsus)
hist(d$Bill)
hist(d$Mass)
hist(d$Wing)

#2001
d2001 <- subset(d, d$Year == "2001")
#Tarsus
mean(d2001$Tarsus, na.rm = TRUE)
var(d2001$Tarsus, na.rm = TRUE)
sd(d2001$Tarsus, na.rm = TRUE)
#Bill Length
mean(d2001$Bill, na.rm = TRUE)
var(d2001$Bill, na.rm = TRUE)
sd(d2001$Bill, na.rm = TRUE)
#Body Mass
mean(d2001$Mass, na.rm = TRUE)
var(d2001$Mass, na.rm = TRUE)
sd(d2001$Mass, na.rm = TRUE)
#Wing Length
mean(d2001$Wing, na.rm = TRUE)
var(d2001$Wing, na.rm = TRUE)
sd(d2001$Wing, na.rm = TRUE)
#Graph
par(mfrow = c(2,2))
hist(d2001$Tarsus)
#hist(d2001$Bill)
#THERE ARE NO VALUES in the above
hist(d2001$Mass)
hist(d2001$Wing)


#Z scores
zTarsus <- (d2$Tarsus - mean(d2$Tarsus))/sd(d2$Tarsus)
var(zTarsus) #1
sd(zTarsus) #1
hist(zTarsus)
#can do scale(d2$Tarsus, center = TRUE, scale = TRUE)

#Making data set from scratch in a set distribution
set.seed(123)
znormal <- rnorm(1e+06)
hist(znormal, breaks = 100)
summary(znormal)

#Normal distribution from random samples
#like above
#gives the 2.5% and 97.5% quantile
qnorm(c(0.025, 0.975))
#pnorm(.Last.value)

par(mfrow = c(1,2))
hist(znormal, breaks = 100)
abline(v = qnorm(c(0.25, 0.5, 0.75)), lwd = 2)
abline(v = qnorm(c(0.025, 0.975)), lwd = 2, lty = "dashed")
plot(density(znormal))
abline(v = qnorm(c(0.25, 0.5, 0.75)), col = "gray")
abline(v = qnorm(c(0.025, 0.975)), lty = "dotted", col = "black")
abline(h = 0, lwd = 3, col = "blue")
text(2, 0.3, "1.96", col = "red", adj = 0)
text(-2, 0.3, "-1.96", col = "red", adj = 1)

par(mfrow = c(1,1))
boxplot(d$Tarsus~d$Sex.1, col = c("red", "blue"), ylab="Tarsus length (mm)")
**********************************************************************

Testing Day1_H02.R...

Output (only first 500 characters): 

**********************************************************************
'data.frame':	1770 obs. of  8 variables:
 $ BirdID: int  1 2 2 2 2 2 2 2 2 2 ...
 $ Year  : int  2002 2001 2002 2003 2004 2004 2004 2004 2004 2005 ...
 $ Tarsus: num  16.9 16.8 17.2 17.5 17.8 ...
 $ Bill  : num  NA NA NA 13.5 13.4 ...
 $ Wing  : num  76 76 76 76 77 78 77 77 77 77 ...
 $ Mass  : num  23.6 27.5 28.1 27.8 26.5 ...
 $ Sex   : int  0 1 1 1 1 1 1 1 1 1 ...
 $ Sex.1 : Factor w/ 2 levels "female","male": 1 2 2 2 2 2 2 2 2 2 ...
[1] "BirdID" "Year"   "Tarsus" "Bill"   "Wing"   "Mass"   "S
**********************************************************************

Encountered error:
Loading required package: modeest
Warning message:
In library(package, lib.loc = lib.loc, character.only = TRUE, logical.return = TRUE,  :
  there is no package called ‘modeest’
Error: could not find function "mlv"
Execution halted

======================================================================
Inspecting script file Day3_H13.R...

File contents are:
**********************************************************************
#FileName: Day3_H13.R
#Author: "Emma Fox (e.fox16@imperial.ac.uk)"

#This script includes the practice for fitting linear models 

##########  H13 ##########

rm(list = ls())

d<-read.table("../Data/SparrowSize.txt", header = TRUE)

#Trying out an ANOVA
d1<-subset(d, d$Wing!="NA")
#visualizing the data
summary(d1$Wing)
hist(d1$Wing)

#Modelling wing and sex with a linear model
model1<-lm(Wing~Sex.1, data=d1)
print(summary(model1))
#sex is significant, males have longer wings
#visualizing the difference
boxplot(d1$Wing~d1$Sex.1, ylab="Wing length (mm)")

#Modelling the effect of sex on wing length with an ANOVA
print(anova(model1))

#post-hoc test to determine effect size
t.test(d1$Wing~d1$Sex.1, var.equal=TRUE)

#TESTING THE EFFECT OF BIRDID (AS A GROUPING FACTOR) ON WING LENGTH
#turning birdid into a factor
str(d1)
d1$BirdID<-as.factor(d1$BirdID)
str(d1)

model2<-lm(Wing~BirdID, data = d1)
print(anova(model2))
print(summary(model2))
boxplot(d1$Wing~d1$BirdID, ylab="Wing length (mm)")
#the boxplot and linear model have hundreds of groupings
#the anova looks much more clear and understandable

#Trying with dplyr
require(dplyr)
tbl_df(d1)
glimpse(d1)

#Counting the number of single, double, triple observations etc.
print(d$Mass %>% cor.test(d$Tarsus, na.rm=TRUE))
d1 %>% 
  group_by(BirdID) %>%
  summarise(count=length(BirdID))
print(count(d1, BirdID))

#Shortcut
count(d1, BirdID)

#Before, it had been listing how many times each bird was measured
#This now shows how many birds were measured once, twice, etc. 
print(d1 %>% 
    group_by(BirdID) %>%
    summarise(count=length(BirdID)) %>%
      count(count))

# #If we had done it like this:
# count(d1, d1$Bird) %>%
#   count(count)
# #the function and variable names would have clashed

#Testing whether the within or among group variance is greater for wing length by BirdID
model3<-lm(Wing~as.factor(BirdID), data = d1)
anova(model3)

#How to figure out the difference in values when multiple groups are involved
boxplot(d$Mass~d$Year)
m2<-lm(d$Mass~as.factor(d$Year))
anova(m2)
#there is a difference but between which years?
summary(m2)
#visualizing the matrix
t(model.matrix(m2))

#EXERCISES#
#1) Table of repeated wing length within individuals
**********************************************************************

Testing Day3_H13.R...

Output (only first 500 characters): 

**********************************************************************
   Min. 1st Qu.  Median    Mean 3rd Qu.    Max. 
   60.0    76.0    77.0    77.4    79.0    84.0 

Call:
lm(formula = Wing ~ Sex.1, data = d1)

Residuals:
     Min       1Q   Median       3Q      Max 
-16.0961  -1.0961  -0.0961   1.3683   5.3683 

Coefficients:
            Estimate Std. Error t value Pr(>|t|)    
(Intercept) 76.09611    0.07175 1060.50   <2e-16 ***
Sex.1male    2.53562    0.09998   25.36   <2e-16 ***
---
Signif. codes:  0 ‘***’ 0.001 ‘**’ 0.01 ‘*’ 0.05 ‘.’ 0.1 ‘
**********************************************************************

Encountered error:
Loading required package: dplyr

Attaching package: ‘dplyr’

The following objects are masked from ‘package:stats’:

    filter, lag

The following objects are masked from ‘package:base’:

    intersect, setdiff, setequal, union


======================================================================
Inspecting script file Day4_H17.R...

File contents are:
**********************************************************************
#FileName: Day4_H17.R
#Author: "Emma Fox (e.fox16@imperial.ac.uk)"

#This script runs through the calculations for a chi square test
#as well as the shorthand function. 

##########  H17 ##########

rm(list = ls())

#Chi-square test
hairEyes <- matrix(c(34, 59, 3, 10, 42, 47), 
                   ncol = 2, 
                   dimnames = list(Hair = c("Black", "Brown", "Blond"),
                                   Eyes = c("Brown", "Blue")))
hairEyes

#Calculating expected counts
rowTot <- rowSums(hairEyes)
colTot <- colSums(hairEyes)
tabTot <- sum(hairEyes)
Expected <- outer(rowTot, colTot)/tabTot
Expected

#Calculating the chi square
cellChi <- (hairEyes - Expected)^2/Expected
tabChi <- sum(cellChi)
tabChi

#Calculating the p value
1 - pchisq(tabChi, df = 2)

#The shortcut for a chi square
hairChi <- chisq.test(hairEyes)
print(hairChi)
**********************************************************************

Testing Day4_H17.R...

Output (only first 500 characters): 

**********************************************************************
       Eyes
Hair    Brown Blue
  Black    34   10
  Brown    59   42
  Blond     3   47
         Brown     Blue
Black 21.66154 22.33846
Brown 49.72308 51.27692
Blond 24.61538 25.38462
[1] 54.63907
[1] 1.365463e-12

	Pearson's Chi-squared test

data:  hairEyes
X-squared = 54.639, df = 2, p-value = 1.365e-12


**********************************************************************

Code ran without errors

Time consumed = 0.07150s

======================================================================
Inspecting script file Day4_H18.R...

File contents are:
**********************************************************************
#FileName: Day4_H18.R
#Author: "Emma Fox (e.fox16@imperial.ac.uk)"

#This script is runs through the calculations for a chi square test
#as well as the shorthand function. 

##########  H18 ##########

a <- read.table("../Data/ObserverRepeatability.txt", header = T)

require(dplyr)

#Counting the number of times each student observed
a %>%
  group_by(StudentID) %>%
  summarise(count=length(StudentID))

#Number of observers
a %>%
  group_by(StudentID) %>%
  summarise(count=length(StudentID)) %>%
    summarise(length(StudentID))

#Number of observations
a %>%
  group_by(StudentID) %>%
  summarise(count=length(StudentID)) %>%
    summarise(sum(count))
#or
length(a$StudentID)

#Squaring each groups N
a %>%
  group_by(StudentID) %>%
  summarise(count=length(StudentID)) %>%
  summarise(sum(count^2))

#Calculating n0
N0 <- 1/79*(151-333/151)
N0

#ANOVA for mean squares
mod <- lm(Tarsus ~ StudentID, data=a)
anova(mod)

#Repeatability calculation
Repeatability <- 2.88/(1.69+2.88)
Repeatability

#Testing effect of handedness
mod <- lm(Tarsus~Leg+Handedness+StudentID, data = a)
anova(mod)
#mixed linear models take care of the problem of overparametrised

require(lme4)

#Linear mixed model
lmm <- lmer(Tarsus~Leg+Handedness+(1|StudentID), data = a)
summary(lmm)

#Calcualting repeatbility with mixed model results
Repeatability <- 3.03/(3.03 + 1.71)
Repeatability

#Total variace is equal to the sum of variances found
var(a$Tarsus)
3.03+1.71 

**********************************************************************

Testing Day4_H18.R...

Output (only first 500 characters): 

**********************************************************************
# A tibble: 80 × 2
   StudentID count
      <fctr> <int>
1   AF151093     3
2     AH2912     2
3    Ak70593     1
4    AK70593     1
5     AL0109     1
6     AR0408     2
7     AR1310     1
8    ASR0312     2
9     BC1603     1
10    cd1302     2
# ... with 70 more rows
# A tibble: 1 × 1
  `length(StudentID)`
                <int>
1                  80
# A tibble: 1 × 1
  `sum(count)`
         <int>
1          151
[1] 151
# A tibble: 1 × 1
  `sum(count^2)`
           <dbl>
1            333
[1
**********************************************************************

Encountered error:
Loading required package: dplyr

Attaching package: ‘dplyr’

The following objects are masked from ‘package:stats’:

    filter, lag

The following objects are masked from ‘package:base’:

    intersect, setdiff, setequal, union

Loading required package: lme4
Warning message:
In library(package, lib.loc = lib.loc, character.only = TRUE, logical.return = TRUE,  :
  there is no package called ‘lme4’
Error: could not find function "lmer"
Execution halted

======================================================================
Inspecting script file Day4_H14.R...

File contents are:
**********************************************************************
#FileName: Day4_H14.R
#Author: "Emma Fox (e.fox16@imperial.ac.uk)"

#This script is used to run repeatability calculations on bird wing length and mass by ID.

##########  H14 ##########

rm(list = ls())

d<-read.table("../Data/SparrowSize.txt", header = TRUE)

#Looking at repeatability with wing legnth and BirdID
d1<-subset(d, d$Wing!="NA")
model3<-lm(Wing~as.factor(BirdID), data = d1)
anova(model3)
#BirdID is significant, getting a for repeatability formula

#Getting ni for the repeatability formula
require(dplyr)
#Counting the number of individual birds measured
d1 %>%
  group_by(BirdID) %>%
  summarise(count=length(BirdID))
#More elegant way, spits out just length
n1<-d1 %>%
  group_by(BirdID) %>%
  summarise(count=length(BirdID)) %>%
    summarise(length(BirdID))
print(n1)

#Doing the formula for n0
#Denominator
d1 %>%
  group_by(BirdID) %>%
  summarise(count=length(BirdID)) %>%
  summarise(sum(count))
#Numerator
d1 %>%  
  group_by(BirdID) %>%
  summarise(count=length(BirdID)) %>%
  summarise(sum(count^2))
#Fraction
7307/1695
#Subtracting the fraction from the denominator
1695-7307/1695
#n0
n0<-(1/617)*(1695-7307/1695)
print(n0)

#REPEATABILITY
repeatability<-((13.20-1.62)/2.74)/(1.62+(13.20-1.62)/2.74)
print(repeatability)
#Conclusion:72% is from between-individual variation (good!)

#~~~~~~~~~~~~~~~~~~~~~BODY MASS REPEATABILITY
#Repeat from above:

#Looking at repeatability with wing legnth and BirdID
d2<-subset(d, d$Mass!="NA")
model4<-lm(Mass~as.factor(BirdID), data = d2)
anova(model4)

#More elegant way, spits out just length
n1.b<-d2 %>%
  group_by(BirdID) %>%
  summarise(count=length(BirdID)) %>%
  summarise(length(BirdID))
print(n1.b)

#Doing the formula for n0
#Denominator
d2 %>%
  group_by(BirdID) %>%
  summarise(count=length(BirdID)) %>%
  summarise(sum(count))
#Numerator
d2 %>%  
  group_by(BirdID) %>%
  summarise(count=length(BirdID)) %>%
  summarise(sum(count^2))
#Fraction
7226/1704
#Subtracting the fraction from the denominator
1704-7226/1704
#n0
n0.b<-(1/633)*(1704-7226/1704)
print(n0.b)

#REPEATABILITY
repeatability.b<-((8.84-1.91)/2.68)/(1.91+(8.84-1.91)/2.68)
print(repeatability.b)
#Conclusion:57% is from between-individual variation (good!)
#Lower than wing because mass varies so much for each bird anyway
**********************************************************************

Testing Day4_H14.R...

Output (only first 500 characters): 

**********************************************************************
Analysis of Variance Table

Response: Wing
                    Df Sum Sq Mean Sq F value    Pr(>F)    
as.factor(BirdID)  617 8147.3 13.2047  8.1734 < 2.2e-16 ***
Residuals         1077 1740.0  1.6156                      
---
Signif. codes:  0 ‘***’ 0.001 ‘**’ 0.01 ‘*’ 0.05 ‘.’ 0.1 ‘ ’ 1
# A tibble: 618 × 2
   BirdID count
    <int> <int>
1       1     1
2       2    10
3       3     1
4       4     1
5       5     9
6       6     4
7       7     2
8       8     1
9       9 
**********************************************************************

Encountered error:
Loading required package: dplyr

Attaching package: ‘dplyr’

The following objects are masked from ‘package:stats’:

    filter, lag

The following objects are masked from ‘package:base’:

    intersect, setdiff, setequal, union


======================================================================
Inspecting script file Day4_H16.R...

File contents are:
**********************************************************************
#FileName: Day4_H16.R
#Author: "Emma Fox (e.fox16@imperial.ac.uk)"

#This script is the full 11 steps for running mixed models and multiple regressions

##########  H16 ##########

rm(list = ls())

daphnia<-read.delim("../Data/daphnia.txt", header = TRUE)
summary(daphnia)

#checking for outliers:
par(mfrow = c(1,2))
plot(Growth.rate ~ Detergent, data = daphnia)
plot(Growth.rate ~ Daphnia, data = daphnia)
#no circles on the boxplots so no outliers

#homogeneity of variance
require(dplyr)
daphnia %>%
  group_by(Detergent) %>%
  summarise(variance=var(Growth.rate))
daphnia %>%
  group_by(Daphnia) %>%
  summarise(variance=var(Growth.rate))
#quite a wide spread of variance within clones but move on

#Checking for normal distribution
par(mfrow = c(1,1))
hist(daphnia$Growth.rate)

#Modelling
#calculating mean and standard error of the mean
seFun <- function(x){
  sqrt(var(x)/length(x))
}
detergentMean <- with(daphnia, tapply(Growth.rate, INDEX = Detergent, FUN = mean))
detergentSEM <- with(daphnia, tapply(Growth.rate, INDEX = Detergent, FUN = seFun))
cloneMean <- with(daphnia, tapply(Growth.rate, INDEX = Daphnia, FUN = mean))
cloneSEM <- with(daphnia, tapply(Growth.rate, INDEX = Daphnia, FUN = seFun))

#Plotting mean with error bars
par(mfrow=c(2,1), mar=c(4,4,1,1))
barMids <- barplot(detergentMean, 
                   xlab = "Detergent Type", 
                   ylab = "Population growth Rate",
                   ylim = c(0,5))
arrows(barMids, detergentMean - detergentSEM, 
       barMids, detergentMean + detergentSEM,
       code=3, angle = 90)
barMids <- barplot(cloneMean, 
                   xlab = "Daphnia clone", 
                   ylab = "Population growth Rate",
                   ylim = c(0,5))
arrows(barMids, cloneMean - cloneSEM, 
       barMids, cloneMean + cloneSEM,
       code=3, angle = 90)
#detergent means seem to overlap but not the clone ones

#trying out a model
daphniaMod <- lm(Growth.rate ~ Detergent + Daphnia, data = daphnia)
anova(daphniaMod)
#clone significant but detergent not

#look at the different means
summary(daphniaMod)
detergentMean - detergentMean[1]
cloneMean - cloneMean[1]

#Testing differences between all pairs with Tukey test
#aov only fits ANOVA
daphniaANOVAMod <- aov(Growth.rate ~ Detergent + Daphnia, data = daphnia)
summary(daphniaANOVAMod)

daphniaModHSD <- TukeyHSD(daphniaANOVAMod)
daphniaModHSD

#visualizing the tukey results
par(mfrow=c(2,1), mar=c(4,4,1,1))
plot(daphniaModHSD)

#diagnostics
par(mfrow=c(2,2))
plot(daphniaMod)

#~~~~~~~~~~~~~~~MULTIPLE REGRESSION~~~~~~~~~~~~~~#
timber <- read.delim("../Data/timber.txt")
summary(timber)

#Outliers
par(mfrow=c(2,2))
boxplot(timber$volume)
boxplot(timber$girth)
boxplot(timber$height)
#one outlier present

#HOMOGENEITY OF VARIANCES
var(timber$volume)
var(timber$girth)
var(timber$height)

#Standardize x's for analysis
t2<-as.data.frame(subset(timber, timber$volume!="NA"))
t2$z.girth<-scale(timber$girth)
t2$z.height<-scale(timber$height)

var(t2$z.girth)
var(t2$z.height)
#PLOT WHOLE SET
plot(t2)

#NORMAL DISTIBRUTION
par(mfrow=c(2,2))
hist(t2$volume)
hist(t2$girth)
hist(t2$height)

#Colinearity among covariates
pairs(timber)
cor(timber)

#Calculating VIF to see how inflated colinearity is making it
summary(lm(girth ~ height, data = timber))
VIF<-1/(1-0.27)
VIF
sqrt(VIF)

#Checking out colinearity among predictors 
pairs(t2)
cor(t2)

#Trying out interactions
timberMod<-lm(volume ~ girth + height, data = timber)
anova(timberMod)
summary(timberMod)
plot(timberMod)

#~~~~~~~~~~~~~~~EXERCISES~~~~~~~~~~#
#1)Running without outlier
t3<-as.data.frame(subset(t2, t2$volume<5))
timberMod2<-lm(volume ~ girth + height, data = t3)
anova(timberMod2)
summary(timberMod2)
#intercept drops by 1 without outlier
plot(timberMod2)
#leverage plot looks mildly better

#2) Models with both covariates and categorical predictors
**********************************************************************

Testing Day4_H16.R...

Output (only first 500 characters): 

**********************************************************************
  Growth.rate     Water     Detergent    Daphnia  
 Min.   :1.762   Tyne:36   BrandA:18   Clone1:24  
 1st Qu.:2.797   Wear:36   BrandB:18   Clone2:24  
 Median :3.788             BrandC:18   Clone3:24  
 Mean   :3.852             BrandD:18              
 3rd Qu.:4.807                                    
 Max.   :6.918                                    
# A tibble: 4 × 2
  Detergent variance
     <fctr>    <dbl>
1    BrandA 1.511245
2    BrandB 1.089727
3    BrandC 1.779843
4    BrandD 2.380693
**********************************************************************

Encountered error:
Loading required package: dplyr

Attaching package: ‘dplyr’

The following objects are masked from ‘package:stats’:

    filter, lag

The following objects are masked from ‘package:base’:

    intersect, setdiff, setequal, union


======================================================================
Inspecting script file Day2_L05.R...

File contents are:
**********************************************************************
#FileName: Day2_L05.R
#Author: "Emma Fox (e.fox16@imperial.ac.uk)"

#This script works with the calculations used for t.tests and their interpretation

##########  H05 ##########

#Clear environment
rm(list = ls())

#setwd("/home/cmee13/Documents/SparrowStats/")

d<-read.table("../Data/SparrowSize.txt", header = TRUE)

#ARE MALE AND FEMALE MEAN MASS DIFFERENT?
boxplot(d$Mass~d$Sex.1, col = c("red", "blue"), ylab="Body mass (g)")

t.test1 <- t.test(d$Mass~d$Sex.1)
t.test1

#IS THE MEAN OF THIS SUBSET OF MALE AND FEMALE MASS DIFFERENT?
d1<-as.data.frame(head(d, 50))
length(d1$Mass)

t.test2 <- t.test(d1$Mass~d1$Sex) 
t.test2

#~~~~~~~~~~~~~~~~~~~~~~~~~~~~~~~~~~~~~~~~~~~~~~~~~~~~~~~~~~~~~~~~~~~~~~~~~~~~~~~~~~~~~~~~#
#2001 WING LENGTH FROM TOTAL MEAN
mean(d$Wing, na.rm = TRUE) 

d2001<-subset(d, d$Year=="2001")
#mu is the grand mean, testing whether our subset is representative of the population with that mean
t.test3 <- t.test(d2001$Wing, mu=77.4, na.rm=TRUE)
t.test3

#2001 MALE AND FEMALE WING LENGTH
mean(d2001$Wing, na.rm = TRUE) 
t.test4 <- t.test(d2001$Wing~d2001$Sex.1)
t.test4
male_2001_wing <- na.omit(subset(d2001$Wing, d2001$Sex.1=="male"))
female_2001_wing <- na.omit(subset(d2001$Wing, d2001$Sex.1=="female"))

#IF MALE AND FEMALE WING LENGTHS DIFFER OVERALL
mean(d$Wing, na.rm = TRUE)
t.test5 <- t.test(d$Wing~d$Sex.1)
t.test5
male_wing <- na.omit(subset(d$Wing, d$Sex.1=="male"))
female_wing <- na.omit(subset(d$Wing, d$Sex.1=="female"))

#IF MALE AND FEMALE TARSUS DIFFER OVERALL
mean(d$Tarsus, na.rm = TRUE)
t.test6 <- t.test(d$Tarsus~d$Sex.1)
t.test6
male_tarsus <- na.omit(subset(d$Tarsus, d$Sex.1=="male"))
female_tarsus <- na.omit(subset(d$Tarsus, d$Sex.1=="female"))

#IF MALE AND FEMALE TARSUS DIFFER IN 2001
mean(d2001$Tarsus, na.rm = TRUE) 
t.test7 <- t.test(d2001$Tarsus~d2001$Sex.1)
t.test7
male_2001_tarsus <- na.omit(subset(d2001$Tarsus, d2001$Sex.1=="male"))
female_2001_tarsus <- na.omit(subset(d2001$Tarsus, d2001$Sex.1=="female"))

#~~~~~~~~~~~~~~~~~~~~~~~~~~~~~~~~~~~~~~~~~~~~~~~~~~~~~~~~~~~~~~~~~~~~~~~~~~~~~~~~~~~~~~~~~
#POWER ANALYSIS
library(pwr)
#power.t.test(d =(0-0.16), sd = 0.96, sig.level = 0.05, power = 0.8, type = c("two.sample"), alternative = c("two.sided"))
pwr.t.test(d=(0-0.16)/0.96, power = .8, sig.level = .05, type = "two.sample", alternative = "two.sided")
#for wing length difference...
pwr.t.test(d=(0-0.16)/0.96, power = .8, sig.level = .05, type = "two.sample", alternative = "two.sided")**********************************************************************

Testing Day2_L05.R...

Output (only first 500 characters): 

**********************************************************************

	Welch Two Sample t-test

data:  d$Mass by d$Sex.1
t = -5.5654, df = 1682.9, p-value = 3.039e-08
alternative hypothesis: true difference in means is not equal to 0
95 percent confidence interval:
 -0.7669117 -0.3672162
sample estimates:
mean in group female   mean in group male 
            27.46852             28.03558 

[1] 50

	Welch Two Sample t-test

data:  d1$Mass by d1$Sex
t = 0.33484, df = 26.84, p-value = 0.7403
alternative hypothesis: true difference in means is not equal to 0
95 perce
**********************************************************************

Encountered error:
Error in library(pwr) : there is no package called ‘pwr’
Execution halted

======================================================================
Inspecting script file Day1_L04.R...

File contents are:
**********************************************************************
#FileName: Day1_L04.R
#Author: "Emma Fox (e.fox16@imperial.ac.uk)"

#This script works with the calculations used for standard error

##########  H04 ##########

d <- read.table("../Data/SparrowSize.txt", header = TRUE)

#CANT JUST DO NA.RM BECAUSE LENGTH WONT MATCH?
d2<-subset(d, d$Tarsus!="NA")
sqrt(var(d$Tarsus, na.rm = TRUE)/length(d$Tarsus))
quantile(d$Tarsus, probs = c(0.025, 0.975), na.rm = TRUE)
sqrt(var(d$Mass, na.rm = TRUE)/length(d$Mass))

sqrt(var(d$Bill, na.rm = TRUE)/length(d$Bill))

sqrt(var(d$Wing, na.rm = TRUE)/length(d$Wing))


d2001 <- subset(d, d$Year == "2001")
sqrt(var(d2001$Tarsus, na.rm = TRUE)/length(d2001$Tarsus))

sqrt(var(d2001$Mass, na.rm = TRUE)/length(d2001$Mass))

#sqrt(var(d2001$Bill)/length(d2001$Bill))
sqrt(var(d2001$Wing, na.rm = TRUE)/length(d2001$Wing))


qnorm(c(0.025, 0.975))**********************************************************************

Testing Day1_L04.R...

Output (only first 500 characters): 

**********************************************************************
[1] 0.02045259
 2.5% 97.5% 
 16.7  20.0 
[1] 0.05035498
[1] 0.0142147
[1] 0.05742411
[1] 0.1014726
[1] 0.17979
[1] 0.2184342
[1] -1.959964  1.959964

**********************************************************************

Code ran without errors

Time consumed = 0.07919s

======================================================================
======================================================================
Finished running scripts

Ran into 8 errors

======================================================================
======================================================================

FINISHED WEEKLY ASSESSMENT

Current Marks for the Week = 100

NOTE THAT THESE ARE NOT THE FINAL MARKS FOR THE WEEK, BUT UPPER BOUND ON THE MARKS!